{
    "page": 1,
    "total_results": 48,
    "total_pages": 3,
    "results": [
        {
            "vote_count": 7334,
            "id": 299534,
            "video": false,
            "vote_average": 8.4,
            "title": "Avengers: Endgame",
            "popularity": 107.664,
            "poster_path": "/or06FN3Dka5tukK1e9sl16pB3iy.jpg",
            "original_language": "en",
            "original_title": "Avengers: Endgame",
            "genre_ids": [
                12,
                878,
                28
            ],
            "backdrop_path": "/7RyHsO4yDXtBv1zUU3mTpHeQ0d5.jpg",
            "adult": false,
            "overview": "After the devastating events of Avengers: Infinity War, the universe is in ruins due to the efforts of the Mad Titan, Thanos. With the help of remaining allies, the Avengers must assemble once more in order to undo Thanos' actions and restore order to the universe once and for all, no matter what consequences may be in store.",
            "release_date": "2019-04-24"
        },
        {
            "vote_count": 19830,
            "id": 24428,
            "video": false,
            "vote_average": 7.6,
            "title": "The Avengers",
            "popularity": 47.275,
            "poster_path": "/cezWGskPY5x7GaglTTRN4Fugfb8.jpg",
            "original_language": "en",
            "original_title": "The Avengers",
            "genre_ids": [
                878,
                28,
                12
            ],
            "backdrop_path": "/hbn46fQaRmlpBuUrEiFqv0GDL6Y.jpg",
            "adult": false,
            "overview": "When an unexpected enemy emerges and threatens global safety and security, Nick Fury, director of the international peacekeeping agency known as S.H.I.E.L.D., finds himself in need of a team to pull the world back from the brink of disaster. Spanning the globe, a daring recruitment effort begins!",
            "release_date": "2012-04-25"
        },
        {
            "vote_count": 14189,
            "id": 299536,
            "video": false,
            "vote_average": 8.3,
            "title": "Avengers: Infinity War",
            "popularity": 101.825,
            "poster_path": "/7WsyChQLEftFiDOVTGkv3hFpyyt.jpg",
            "original_language": "en",
            "original_title": "Avengers: Infinity War",
            "genre_ids": [
                12,
                28,
                14
            ],
            "backdrop_path": "/bOGkgRGdhrBYJSLpXaxhXVstddV.jpg",
            "adult": false,
            "overview": "As the Avengers and their allies have continued to protect the world from threats too large for any one hero to handle, a new danger has emerged from the cosmic shadows: Thanos. A despot of intergalactic infamy, his goal is to collect all six Infinity Stones, artifacts of unimaginable power, and use them to inflict his twisted will on all of reality. Everything the Avengers have fought for has led up to this moment - the fate of Earth and existence itself has never been more uncertain.",
            "release_date": "2018-04-25"
        },
        {
            "vote_count": 13594,
            "id": 99861,
            "video": false,
            "vote_average": 7.3,
            "title": "Avengers: Age of Ultron",
            "popularity": 37.581,
            "poster_path": "/t90Y3G8UGQp0f0DrP60wRu9gfrH.jpg",
            "original_language": "en",
            "original_title": "Avengers: Age of Ultron",
            "genre_ids": [
                28,
                12,
                878
            ],
            "backdrop_path": "/rFtsE7Lhlc2jRWF7SRAU0fvrveQ.jpg",
            "adult": false,
            "overview": "When Tony Stark tries to jumpstart a dormant peacekeeping program, things go awry and Earth’s Mightiest Heroes are put to the ultimate test as the fate of the planet hangs in the balance. As the villainous Ultron emerges, it is up to The Avengers to stop him from enacting his terrible plans, and soon uneasy alliances and unexpected action pave the way for an epic and unique global adventure.",
            "release_date": "2015-04-22"
        },
        {
            "vote_count": 343,
            "id": 9320,
            "video": false,
            "vote_average": 4.3,
            "title": "The Avengers",
            "popularity": 9.082,
            "poster_path": "/zxjJ2IxhilZLzl8eXjj7S0apZ7k.jpg",
            "original_language": "en",
            "original_title": "The Avengers",
            "genre_ids": [
                53,
                878
            ],
            "backdrop_path": "/8YW4rwWQgC2JRlBcpStMNUko13k.jpg",
            "adult": false,
            "overview": "British Ministry agent John Steed, under direction from \"Mother\", investigates a diabolical plot by arch-villain Sir August de Wynter to rule the world with his weather control machine. Steed investigates the beautiful Doctor Mrs. Emma Peel, the only suspect, but simultaneously falls for her and joins forces with her to combat Sir August.",
            "release_date": "1998-08-13"
        },
        {
            "vote_count": 140,
            "id": 14609,
            "video": false,
            "vote_average": 6.5,
            "title": "Ultimate Avengers",
            "popularity": 8.33,
            "poster_path": "/pmNYggLktcWHzQeCru5ywL4OiRH.jpg",
            "original_language": "en",
            "original_title": "Ultimate Avengers",
            "genre_ids": [
                28,
                16,
                12,
                878
            ],
            "backdrop_path": "/mZO4V0ALx15QTgWr4SaXYGT7i60.jpg",
            "adult": false,
            "overview": "When a nuclear missile was fired at Washington in 1945, Captain America managed to detonate it in the upper atmosphere. But then he fell miles into the icy depths of the North Atlantic, where he remained lost for over sixty years. But now, with the world facing the very same evil, Captain America must rise again as our last hope for survival.",
            "release_date": "2006-02-21"
        },
        {
            "vote_count": 54,
            "id": 323660,
            "video": false,
            "vote_average": 3.8,
            "title": "Avengers Grimm",
            "popularity": 8.059,
            "poster_path": "/egTkpBSKbqBK66nr4G1cORgZT75.jpg",
            "original_language": "en",
            "original_title": "Avengers Grimm",
            "genre_ids": [
                28,
                14
            ],
            "backdrop_path": "/2tklhhTTGKXZLKdP6VasBbas8Nn.jpg",
            "adult": false,
            "overview": "When Rumpelstiltskin destroys the Magic Mirror and escapes to the modern world, the four princesses of \"Once Upon a Time\"-Cinderella, Sleeping Beauty, Snow White, and Rapunzel-are sucked through the portal too. Well-trained and endowed with magical powers, the four women must fight Rumpelstiltskin and his army of thralls before he enslaves everyone on Earth.",
            "release_date": "2015-03-17"
        },
        {
            "vote_count": 6,
            "id": 347158,
            "video": false,
            "vote_average": 6.2,
            "title": "Bikini Avengers",
            "popularity": 5.218,
            "poster_path": "/ehTYWuPKwl8sXPX0I6LnvJUDaVl.jpg",
            "original_language": "en",
            "original_title": "Bikini Avengers",
            "genre_ids": [
                35
            ],
            "backdrop_path": null,
            "adult": false,
            "overview": "When the Jade Empress steals the world's largest diamonds, super heroes Bikini Avenger and Thong Girl must stop her before she uses the gems to build a dangerous sci-fi weapon.",
            "release_date": "2015-02-24"
        },
        {
            "vote_count": 20,
            "id": 521720,
            "video": false,
            "vote_average": 3.7,
            "title": "Avengers Grimm: Time Wars",
            "popularity": 8.153,
            "poster_path": "/xfAcu74DRQXeM9XqFcE5MrSRzYP.jpg",
            "original_language": "en",
            "original_title": "Avengers Grimm: Time Wars",
            "genre_ids": [
                28,
                12,
                14
            ],
            "backdrop_path": "/mdSrxMg4l6a76AFoBWmu7Q1X4Rt.jpg",
            "adult": false,
            "overview": "When Rumpelstiltskin tries to take over Earth once and for all, The Avengers Grimm must track him down through time in order to defeat him.",
            "release_date": "2018-05-01"
        },
        {
            "vote_count": 121,
            "id": 14611,
            "video": false,
            "vote_average": 6.4,
            "title": "Ultimate Avengers 2",
            "popularity": 6.723,
            "poster_path": "/u7vvexSU81Qk20yU7Vog23Ogob.jpg",
            "original_language": "en",
            "original_title": "Ultimate Avengers 2",
            "genre_ids": [
                12,
                16,
                28,
                878
            ],
            "backdrop_path": "/85NqI4WuCim6dZexmTPUAi13Af0.jpg",
            "adult": false,
            "overview": "Mysterious Wakanda lies in the darkest heart of Africa, unknown to most of the world. An isolated land hidden behind closed borders, fiercely protected by its young king - the Black Panther. But when brutal alien invaders attack, the threat leaves the Black Panther with no option but to go against the sacred decrees of his people and ask for help from outsiders.",
            "release_date": "2006-08-08"
        },
        {
            "vote_count": 77,
            "id": 14613,
            "video": false,
            "vote_average": 6.2,
            "title": "Next Avengers: Heroes of Tomorrow",
            "popularity": 6.32,
            "poster_path": "/nbwvR5cfvxMtvWowIiwazVaaTVz.jpg",
            "original_language": "en",
            "original_title": "Next Avengers: Heroes of Tomorrow",
            "genre_ids": [
                16,
                10751
            ],
            "backdrop_path": "/8N91uYwrr1uepEKbmym1tgfXlzS.jpg",
            "adult": false,
            "overview": "The children of the Avengers hone their powers and go head to head with the very enemy responsible for their parents' demise.",
            "release_date": "2008-09-02"
        },
        {
            "vote_count": 1,
            "id": 611733,
            "video": false,
            "vote_average": 10,
            "title": "Avengers: Endgame Bring-Back Event",
            "popularity": 3.842,
            "poster_path": "/r4hgrjqs6VY1V2TxIOuzlekLBjs.jpg",
            "original_language": "en",
            "original_title": "Avengers: Endgame Bring-Back Event",
            "genre_ids": [
                28,
                12,
                14
            ],
            "backdrop_path": null,
            "adult": false,
            "overview": "See the year's number one movie on the big screen one more time before it leaves cinemas!  Fans who buy a movie ticket will be treated to a video introduction by director Anthony Russo and an unfinished deleted scene from the film, and it will be a chance for fans to get a head start on the upcoming Marvel Studios film \"Spider-Man: Far From Home\" via a special sneak peek.  PLEASE STAY AFTER THE CREDITS. EXCLUSIVE CONTENT WILL BE PLAYED AFTER THE CREDITS.",
            "release_date": "2019-06-29"
        },
        {
            "vote_count": 3,
            "id": 516339,
            "video": false,
            "vote_average": 6,
            "title": "SuperBobrovs. People Avengers",
            "popularity": 1.913,
            "poster_path": "/6kdtC1GvQ62YAQneNHWfexGr7oE.jpg",
            "original_language": "ru",
            "original_title": "СуперБобровы. Народные мстители",
            "genre_ids": [
                10751,
                35
            ],
            "backdrop_path": "/bsm7vCzMtE1aA1WDLoi310aY1oe.jpg",
            "adult": false,
            "overview": "The continuations of the adventures of Bobrov family all members of which suddenly became superheroes...",
            "release_date": "2017-12-25"
        },
        {
            "vote_count": 28,
            "id": 368304,
            "video": false,
            "vote_average": 6.3,
            "title": "LEGO Marvel Super Heroes: Avengers Reassembled!",
            "popularity": 3.595,
            "poster_path": "/pPdB6N9iJjn9GwrNkhMS1FKgx22.jpg",
            "original_language": "en",
            "original_title": "LEGO Marvel Super Heroes: Avengers Reassembled!",
            "genre_ids": [
                16
            ],
            "backdrop_path": "/7QNGBStqOLNtKrczEmbjfuCHKjo.jpg",
            "adult": false,
            "overview": "In \"LEGO Marvel Super Heroes: Avengers Reassembled!,\" the Avengers prepare for a party at Stark Tower and notice that Iron Man is acting strange. After some investigation, they discover that the evil Ultron has taken control of Iron Man and his armor as part of his scheme to take over the world. It's up to Captain America, the Hulk, Thor, Vision, Black Widow, Hawkeye and their friends (Spider-Man, Iron Spider, and special guest star Ant-Man) to rescue Iron Man from Ultron's clutches and defeat the super villain before he causes even more destruction and chaos.",
            "release_date": "2015-11-16"
        },
        {
            "vote_count": 4,
            "id": 538153,
            "video": false,
            "vote_average": 4.3,
            "title": "Avengers of Justice: Farce Wars",
            "popularity": 2.398,
            "poster_path": "/wEN1BqthrykFvkjwZZo9eU1ti6z.jpg",
            "original_language": "en",
            "original_title": "Avengers of Justice: Farce Wars",
            "genre_ids": [
                35,
                14
            ],
            "backdrop_path": "/7dxHsaSxrkowFFmg7gInn0l9sh2.jpg",
            "adult": false,
            "overview": "While trying to remain a good husband and father, Superbat and the Avengers of Justice come out of retirement to stop Dark Jokester and Lisp Luthor from freezing the planet.",
            "release_date": "2018-07-20"
        },
        {
            "vote_count": 6,
            "id": 63441,
            "video": false,
            "vote_average": 6.8,
            "title": "Masked Avengers",
            "popularity": 1.828,
            "poster_path": "/2QTTl6U3TD0mWdrv64Uyu8lsizP.jpg",
            "original_language": "zh",
            "original_title": "叉手",
            "genre_ids": [
                28
            ],
            "backdrop_path": "/nrwT1fQTGgy62xSJ6v501EAQukS.jpg",
            "adult": false,
            "overview": "Philip Kwok plays a repentant killer who vows to destroy the masked gang of which he was a member. A young fighter and his martial arts brothers come to the town to catch the killers, but one of them is not to be trusted!",
            "release_date": "1981-05-15"
        },
        {
            "vote_count": 1,
            "id": 223291,
            "video": false,
            "vote_average": 10,
            "title": "Alien Avengers II",
            "popularity": 1.542,
            "poster_path": "/4L3ajGP3ZsnM8xIrXjwEZOLYBjb.jpg",
            "original_language": "en",
            "original_title": "Alien Avengers II",
            "genre_ids": [
                10770,
                35,
                878
            ],
            "backdrop_path": null,
            "adult": false,
            "overview": "Weird things are happening in the town of Justice, Arizona: three sheriffs have disappeared, and someone is killing the rancher's livestock in a bizarre, ritualistic fashion. Locals believe the incidents were caused by aliens...\r But a visiting couple, Charlie and Rhonda, knows better – because they're aliens themselves. When no one else will, Charlie and Rhonda volunteer to be the new sheriffs to get to bottom of the crimes. Hiding behind the power of the badge, the two make their own rules, punishing wrong-doers with their own form of \"eye-for-an-eye\" alien vengeance.\r Follow this twisted, outer space \"Bonnie and Clyde\" as they attempt to bring Justice the justice it deserves.",
            "release_date": "1997-10-25"
        },
        {
            "vote_count": 2,
            "id": 58906,
            "video": false,
            "vote_average": 5.5,
            "title": "Alien Avengers",
            "popularity": 0.991,
            "poster_path": "/Akd3Aqrr2q8PLKOCPOkOnB3AoJk.jpg",
            "original_language": "en",
            "original_title": "Alien Avengers",
            "genre_ids": [
                35,
                878
            ],
            "backdrop_path": "/boX7D2wHtf01C7AzzPuVZAzc74x.jpg",
            "adult": false,
            "overview": "Charlie and Rhonda are a sweet and comfortable married couple on vacation with their lovely daughter Daphne. They find a rundown boarding house and its haggard owner, Joseph, an ex-con whose mother has just died and left him the house. He doesn't know why this cheerful couple would want to vacation in the worst part of Los Angeles, but he doesn't know they're vacationing from outer space, and their idea of fun is murdering lowlife out on the streets",
            "release_date": "1996-08-03"
        },
        {
            "vote_count": 102,
            "id": 257346,
            "video": false,
            "vote_average": 5.8,
            "title": "Avengers Confidential: Black Widow & Punisher",
            "popularity": 6.861,
            "poster_path": "/6zBkbmqB857edSNt08fJpv1Tqqt.jpg",
            "original_language": "ja",
            "original_title": "アベンジャーズ コンフィデンシャル：ブラック・ウィドウ ＆ パニッシャー",
            "genre_ids": [
                16,
                878,
                28
            ],
            "backdrop_path": "/kI1AdjSl2o038FQRZTuOqOlZ9VN.jpg",
            "adult": false,
            "overview": "When the Punisher takes out a black-market weapons dealer, he stumbles upon a far-reaching terrorist plot devised by a group known as Leviathan.",
            "release_date": "2014-03-25"
        },
        {
            "vote_count": 29,
            "id": 40081,
            "video": false,
            "vote_average": 6.7,
            "title": "Crippled Avengers",
            "popularity": 5.951,
            "poster_path": "/hWgyQ1Yv9tHz0m8eBzKbPkLjtrD.jpg",
            "original_language": "zh",
            "original_title": "残缺",
            "genre_ids": [
                28,
                18
            ],
            "backdrop_path": "/5nwuBYksiGkrACCVgq086L9zwWm.jpg",
            "adult": false,
            "overview": "Crippled Avengers is a 1978 Shaw Brothers kung fu film directed by Chang Cheh and starring four members of the Venom Mob. It has been released in North America as Mortal Combat and Return of the 5 Deadly Venoms. The film follows a group of martial artists seeking revenge after being crippled by Tu Tin-To (Chen Kuan Tai), a martial arts master, and his son (Lu Feng).",
            "release_date": "1978-12-20"
        }
    ]
}